{
  "theme": {
    "name": "FoldableTheme",
    "styles": [
      "yellow",
      "blue",
      "default",
      "red",
      "purple",
      "black",
      "cyan",
      "green"
    ],
    "version": "2.5",
    "customStyles": {
      "mainBackgroundColor": "#00468b"
    },
    "sharedTheme": {
      "useHeader": false,
      "useLogo": false,
      "isPortalSupport": true
    }
  },
  "portalUrl": "https://ucsb.maps.arcgis.com/home/index.html",
  "appId": "",
  "authorizedCrossOriginDomains": [],
  "title": "FrameFinder",
  "subtitle": "UCSB Library",
  "keepAppState": false,
  "logo": "images/logo.png",
  "geometryService": "https://utility.arcgisonline.com/arcgis/rest/services/Geometry/GeometryServer",
  "links": [
    {
      "label": "More about our Air Photos",
      "url": "https://www.library.ucsb.edu/geospatial/aerial-photography"
    }
  ],
  "widgetOnScreen": {
    "widgets": [
      {
        "uri": "themes/FoldableTheme/widgets/HeaderController/Widget",
        "position": {
          "left": 0,
          "top": 0,
          "right": 0,
          "height": 40,
          "relativeTo": "browser"
        },
        "version": "2.5",
        "id": "themes_FoldableTheme_widgets_HeaderController_Widget_1",
        "name": "HeaderController"
      },
      {
        "uri": "widgets/Scalebar/Widget",
        "position": {
          "left": 7,
          "bottom": 25,
          "relativeTo": "map"
        },
        "version": "2.5",
        "id": "widgets_Scalebar_Widget_2",
        "name": "Scalebar"
      },
      {
        "uri": "widgets/Search/Widget",
        "position": {
          "left": 55,
          "top": 5,
          "relativeTo": "map"
        },
        "version": "2.5",
        "id": "widgets_Search_Widget_3",
        "name": "Search"
      },
      {
        "uri": "widgets/Coordinate/Widget",
        "position": {
          "left": 7,
          "bottom": 5,
          "relativeTo": "map"
        },
        "version": "2.5",
        "id": "widgets_Coordinate_Widget_4",
        "name": "Coordinate"
      },
      {
        "position": {
          "left": 55,
          "top": 45,
          "relativeTo": "map"
        },
        "placeholderIndex": 1,
        "id": "_5",
        "version": "2.5",
        "uri": "widgets/NearMe/Widget",
        "name": "NearMe",
        "closeable": true,
        "IsController": false,
        "config": "configs/NearMe/config_NearMe.json"
      },
      {
        "position": {
          "left": 105,
          "top": 45,
          "relativeTo": "map"
        },
        "placeholderIndex": 1,
        "id": "_6",
        "name": "TimeSlider",
        "version": "2.5",
        "uri": "widgets/TimeSlider/Widget",
        "closeable": true,
        "config": "configs/TimeSlider/config_TimeSlider.json"
      },
      {
        "position": {
          "left": 155,
          "top": 45,
          "relativeTo": "map"
        },
        "placeholderIndex": 1,
        "id": "_7",
        "name": "Select",
        "version": "2.5",
        "uri": "widgets/Select/Widget",
        "config": "configs/Select/config_Select.json"
      },
      {
        "position": {
          "left": 205,
          "top": 45,
          "relativeTo": "map"
        },
        "placeholderIndex": 1,
        "id": "_8",
        "name": "Measurement",
        "version": "2.5",
        "uri": "widgets/Measurement/Widget",
        "config": "configs/Measurement/config_Measurement.json"
      },
      {
        "position": {
          "left": 255,
          "top": 45,
          "relativeTo": "map"
        },
        "placeholderIndex": 1,
        "id": "_9",
        "name": "BasemapGallery",
        "version": "2.5",
        "uri": "widgets/BasemapGallery/Widget",
        "config": "configs/BasemapGallery/config_BasemapGallery.json"
      },
      {
        "uri": "widgets/OverviewMap/Widget",
        "position": {
          "bottom": 0,
          "right": 0,
          "zIndex": 1,
          "relativeTo": "map"
        },
        "version": "2.5",
        "id": "widgets_OverviewMap_Widget_10",
        "name": "OverviewMap"
      },
      {
        "uri": "widgets/HomeButton/Widget",
        "position": {
          "left": 7,
          "top": 75,
          "relativeTo": "map"
        },
        "version": "2.5",
        "id": "widgets_HomeButton_Widget_11",
        "name": "HomeButton"
      },
      {
        "uri": "widgets/MyLocation/Widget",
        "position": {
          "left": 7,
          "top": 110,
          "relativeTo": "map"
        },
        "version": "2.5",
        "id": "widgets_MyLocation_Widget_12",
        "name": "MyLocation",
        "config": "configs/MyLocation/config_MyLocation.json",
        "visible": false
      },
      {
        "uri": "widgets/AttributeTable/Widget",
        "position": {
          "relativeTo": "browser"
        },
        "version": "2.5",
        "id": "widgets_AttributeTable_Widget_13",
        "name": "AttributeTable",
        "config": "configs/AttributeTable/config_AttributeTable.json"
      },
      {
        "uri": "widgets/Splash/Widget",
        "visible": false,
        "position": {
          "relativeTo": "browser"
        },
        "version": "2.5",
        "id": "widgets_Splash_Widget_14",
        "name": "Splash"
      },
      {
        "uri": "widgets/ZoomSlider/Widget",
        "position": {
          "top": 5,
          "left": 7,
          "relativeTo": "map"
        },
        "version": "2.5",
        "id": "widgets_ZoomSlider_Widget_15",
        "name": "ZoomSlider"
      },
      {
        "uri": "widgets/ExtentNavigate/Widget",
        "visible": false,
        "position": {
          "top": 150,
          "left": 7,
          "relativeTo": "map"
        },
        "version": "2.5",
        "id": "widgets_ExtentNavigate_Widget_18",
        "name": "ExtentNavigate"
      },
      {
        "uri": "widgets/FullScreen/Widget",
        "visible": false,
        "position": {
          "right": 8,
          "top": 8,
          "relativeTo": "map"
        },
        "version": "2.5",
        "id": "widgets_FullScreen_Widget_19",
        "name": "FullScreen"
      }
    ],
    "panel": {
      "uri": "jimu/OnScreenWidgetPanel",
      "position": {
        "relativeTo": "map"
      }
    }
  },
  "map": {
    "3D": false,
    "2D": true,
    "position": {
      "left": 0,
      "top": 40,
      "right": 0,
      "bottom": 0
    },
    "itemId": "0fe449f9e40b48e591e3f99bc42d7f35",
    "mapOptions": {},
    "id": "map",
    "portalUrl": "https://ucsb.maps.arcgis.com/home/index.html"
  },
  "widgetPool": {
    "panel": {
      "uri": "themes/FoldableTheme/panels/FoldablePanel/Panel",
      "position": {
        "top": 5,
        "right": 5,
        "bottom": 5,
        "zIndex": 5,
        "relativeTo": "map"
      }
    },
    "widgets": [
      {
        "uri": "widgets/Legend/Widget",
        "version": "2.5",
        "id": "widgets_Legend_Widget_16",
        "name": "Legend",
        "index": 2
      }
    ],
    "groups": []
  },
  "mobileLayout": {
    "widgetOnScreen": {
      "widgets": {
        "widgets/Scalebar/Widget": {
          "position": {
            "left": 7,
            "bottom": 40
          },
          "version": "1.4"
        },
        "widgets/Coordinate/Widget": {
          "position": {
            "left": 7,
            "bottom": 17
          },
          "version": "1.4"
        }
      }
    }
  },
  "loadingPage": {
    "backgroundColor": "#508dca",
    "backgroundImage": {
      "visible": false
    },
    "loadingGif": {
      "visible": true,
      "uri": "/webappbuilder/apps/2/configs/loading/images/predefined_loading_1.gif",
      "width": 58,
      "height": 29
    }
  },
  "wabVersion": "2.5",
  "isWebTier": false,
  "httpProxy": {
    "useProxy": true,
    "alwaysUseProxy": false,
    "url": "",
    "rules": []
  },
  "dataSource": {
    "dataSources": {},
    "settings": {}
  },
  "appItemId": "6893fd2c437c40538048511b6880aae6"
}